Channel  Owner  SlaveId  Periph
0.       4.      0x0     0x01
1.       2.      0x0     0x04
2.       0.      0x0     0x04
3.       1.      0x0     0x04
4.       4.      0x0     0x04
5.       4.      0x0     0x05
6.       4.      0x0     0x06
7.       4.      0x0     0x07
8.       4.      0x0     0x08
9.       1.      0x0     0x08
10.      0.      0x0     0x08
11.      4.      0x0     0x09
12.      4.      0x0     0x0B
13.      0.      0x0     0x10
14.      0.      0x0     0x11
15.      0.      0x0     0x12
16.      0.      0x0     0x13
17.      0.      0x0     0x14
18.      0.      0x0     0x15
19.      0.      0x0     0x16
20.      0.      0x0     0x17
21.      0.      0x0     0x18
22.      0.      0x0     0x19
23.      0.      0x0     0x1A
24.      0.      0x0     0x1D
25.      0.      0x0     0x1E
26.      2.      0x0     0x1F
27.      0.      0x0     0x24
28.      4.      0x0     0x28
29.      4.      0x0     0x2C
30.      4.      0x0     0x30
31.      0.      0x0     0x31
32.      2.      0x0     0x32
33.      0.      0x0     0x35
34.      4.      0x0     0x36
35.      4.      0x0     0x37
36.      2.      0x0     0x38
37.      4.      0x0     0x39
38.      4.      0x0     0x3C
39.      4.      0x0     0x3D
40.      0.      0x0     0x48
41.      2.      0x0     0x50
42.      4.      0x0     0x50
43.      4.      0x0     0x51
44.      4.      0x0     0x52
45.      4.      0x0     0x53
46.      4.      0x0     0x54
47.      4.      0x0     0x55
48.      4.      0x0     0x56
49.      4.      0x0     0x59
50.      4.      0x0     0x5A
51.      0.      0x0     0x5B
52.      1.      0x0     0x60
53.      0.      0x0     0x61
54.      0.      0x0     0x62
55.      4.      0x0     0x66
56.      4.      0x0     0x67
57.      1.      0x0     0x70
58.      4.      0x0     0x71
59.      4.      0x0     0x72
60.      4.      0x0     0x73
61.      4.      0x0     0x74
62.      4.      0x0     0x75
63.      0.      0x0     0xB0
64.      0.      0x0     0xB1
65.      0.      0x0     0xB2
66.      0.      0x0     0xB3
67.      0.      0x0     0xB4
68.      0.      0x0     0xB5
69.      0.      0x0     0xB6
70.      0.      0x0     0xB7
71.      0.      0x0     0xC0
72.      0.      0x0     0xC1
73.      0.      0x0     0xC2
74.      0.      0x0     0xC3
75.      4.      0x0     0xC4
76.      4.      0x0     0xC5
77.      0.      0x0     0xC6
78.      0.      0x0     0xC7
79.      4.      0x0     0xC8
80.      4.      0x0     0xC9
81.      4.      0x1     0x01
82.      4.      0x1     0x10
83.      4.      0x1     0x14
84.      4.      0x1     0x15
85.      4.      0x1     0x16
86.      4.      0x1     0x17
87.      4.      0x1     0x18
88.      4.      0x1     0x19
89.      4.      0x1     0x1A
90.      4.      0x1     0x1B
91.      4.      0x1     0x1C
92.      4.      0x1     0x1D
93.      4.      0x1     0x1E
94.      4.      0x1     0x1F
95.      4.      0x1     0x20
96.      4.      0x1     0x21
97.      4.      0x1     0x22
98.      4.      0x1     0x40
99.      4.      0x1     0x41
100.     4.      0x1     0x42
101.     4.      0x1     0x43
102.     4.      0x1     0x44
103.     4.      0x1     0x45
104.     4.      0x1     0x46
105.     4.      0x1     0x47
106.     4.      0x1     0x48
107.     4.      0x1     0x49
108.     4.      0x1     0x4A
109.     4.      0x1     0x4B
110.     4.      0x1     0x4C
111.     4.      0x1     0x4D
112.     4.      0x1     0x4E
113.     4.      0x1     0x4F
114.     4.      0x1     0x50
115.     4.      0x1     0x51
116.     4.      0x1     0x52
117.     0.      0x1     0x53
118.     4.      0x4     0x01
119.     2.      0x4     0x04
120.     0.      0x4     0x04
121.     1.      0x4     0x04
122.     4.      0x4     0x04
123.     4.      0x4     0x05
124.     4.      0x4     0x06
125.     4.      0x4     0x08
126.     1.      0x4     0x08
127.     0.      0x4     0x08
128.     4.      0x4     0x09
129.     0.      0x4     0x24
130.     4.      0x4     0x2C
131.     0.      0x4     0x31
132.     2.      0x4     0x32
133.     0.      0x4     0x35
134.     4.      0x4     0x36
135.     4.      0x4     0x37
136.     4.      0x4     0x39
137.     4.      0x4     0x3C
138.     0.      0x4     0x3D
139.     0.      0x4     0x3E
140.     2.      0x4     0x3F
141.     4.      0x4     0x59
142.     0.      0x4     0x5B
143.     4.      0x4     0x66
144.     0.      0x4     0x67
145.     1.      0x4     0x70
146.     4.      0x4     0x71
147.     4.      0x4     0x72
148.     0.      0x4     0x73
149.     0.      0x4     0x74
150.     0.      0x4     0x75
151.     0.      0x4     0xC0
152.     0.      0x4     0xC1
153.     0.      0x4     0xC2
154.     0.      0x4     0xC3
155.     0.      0x4     0xC4
156.     0.      0x4     0xC5
157.     4.      0x4     0xC6
158.     0.      0x4     0xC7
159.     0.      0x4     0xC8
160.     0.      0x4     0xC9
161.     0.      0x4     0xCA
162.     0.      0x4     0xCB
163.     4.      0x5     0x01
164.     0.      0x5     0x0F
165.     4.      0x5     0x10
166.     4.      0x5     0x14
167.     4.      0x5     0x15
168.     4.      0x5     0x16
169.     4.      0x5     0x17
170.     4.      0x5     0x18
171.     4.      0x5     0x19
172.     0.      0x5     0x1A
173.     0.      0x5     0x1B
174.     0.      0x5     0x1C
175.     0.      0x5     0x1D
176.     0.      0x5     0x1E
177.     0.      0x5     0x1F
178.     0.      0x5     0x20
179.     0.      0x5     0x21
180.     0.      0x5     0x22
181.     0.      0x5     0x23
182.     0.      0x5     0x24
183.     0.      0x5     0x25
184.     4.      0x5     0x26
185.     4.      0x5     0x27
186.     4.      0x5     0x28
187.     4.      0x5     0x29
188.     4.      0x5     0x2A
189.     4.      0x5     0x2B
190.     4.      0x5     0x40
191.     4.      0x5     0x41
192.     4.      0x5     0x42
193.     4.      0x5     0x43
194.     4.      0x5     0x44
195.     4.      0x5     0x45
196.     4.      0x5     0x46
197.     4.      0x5     0x47
198.     4.      0x5     0x48
199.     4.      0x5     0x49
200.     4.      0x5     0x4A
201.     4.      0x5     0xA0
202.     4.      0x5     0xA1
203.     0.      0x5     0xB0
204.     0.      0x5     0xB1
205.     0.      0x5     0xB2
206.     0.      0x5     0xB3
207.     0.      0x5     0xBC
208.     0.      0x5     0xBD
209.     0.      0x5     0xD0
210.     0.      0x5     0xD3
211.     0.      0x5     0xD8
212.     0.      0x5     0xD9
213.     0.      0x5     0xEC
