REG
0x0202187F
0x00027F7B
0x000076BF
0x0007F8FE
0x000FFEFE
0x208802AB
0x00005512
0x03880001
0x0000021F
0x0007F8FE
0x000FFEFE
0x00041000
0x00000000
0x00000000
0x00000000
0x002DC896
0x00000009
0x001FC3FD
0x00080102
0x00100000
0x00000008
0x00208800
0x0068B800
0x00000800
0x00483000
0x00555555
0x00397A41
0x00000000
0x00000000
0x00000000
0x00000000