Channel  SlaveId  Periph
0.       0x0      0x50
1.       0x0      0x51
2.       0x6      0x52
3.       0x0      0x53
4.       0x0      0x54
5.       0x5      0x55
6.       0x6      0x56
7.       0x0      0x59
8.       0x0      0x52
9.       0x0      0x53
10.      0x0      0x55
11.      0x0      0x56
12.      0x0      0x59
13.      0x0      0x5A
14.      0x0      0x71
15.      0x0      0x72
16.      0x0      0x73
17.      0x0      0x74
18.      0x0      0x75
19.      0x1      0x14
20.      0x1      0x15
21.      0x1      0x16
22.      0x1      0x18
23.      0x1      0x19
24.      0x1      0x1A
25.      0x1      0x1B
26.      0x1      0x1C
27.      0x1      0x1D
28.      0x1      0x1E
29.      0x1      0x1F
30.      0x1      0x20
31.      0x1      0x21